wave.vcd
$date
	Wed Sep 24 09:33:44 2025
$end
$version
	QuestaSim Version 2025.1_1
$end
$timescale
	1ps
$end
$scope module tb_fpnew_simple $end
$var reg 1 ! clk $end
$var reg 1 " rst_ni $end
$var integer 32 # op_i $end
$var reg 1 $ in_valid_i $end
$var reg 1 % out_ready_i $end
$var reg 1 & flush_i $end
$var reg 1 ' in_ready_o $end
$var reg 16 ( result_o [15:0] $end
$var reg 1 ) tag_o $end
$var reg 1 * out_valid_o $end
$upscope $end
$enddefinitions $end
#0
b0 !
b0 "
bx #
bx $
bx %
b0 &
bx '
b0 (
b0 )
b0 *
b0 *
b0 )
b0 (
#5000
b1 !
#10000
b1 "
b0 !
bx #
b1 $
b1 %
b1 '
b1 *
bx )
bx (
#15000
b1 !
b0 $
b0 '
b111111111111111 (
#20000
b1 &
b0 !
#25000
b1 !
b1 $
b1 '
b100010100111001 (
#30000
b0 !
#35000
b1 !
b0 $
b0 '
#40000
b0 !
#45000
b1 !
bx0 #
b1 $
b1 '
b1010010110001111 (
#50000
b0 !
#55000
b1 !
b0 $
b0 '
b0 *
b0 )
b0 (
#60000
b0 !
#65000
b1 !
