wave.vcd
$date
	Wed Oct  1 08:57:13 2025
$end
$version
	QuestaSim Version 2025.1_1
$end
$timescale
	1ps
$end
$scope module tb_fpnew_simple $end
$var reg 1 ! clk $end
$var reg 1 " rst_ni $end
$var integer 32 # op_i $end
$var reg 1 $ in_valid_i $end
$var reg 1 % out_ready_i $end
$var reg 1 & flush_i $end
$var reg 1 ' in_ready_o $end
$var reg 32 ( result_o [31:0] $end
$var reg 1 ) tag_o $end
$var reg 1 * out_valid_o $end
$var reg 1 + busy_o $end
$upscope $end
$enddefinitions $end
#0
b0 !
b0 "
bx #
bx $
bx %
b1 &
bx '
bx (
bx )
bx *
bx +
#5000
b1 !
b1 "
b0 &
bx #
b1 $
b1 %
b1 '
b0 +
b1 *
bx )
b1111111111111111111111111111111 (
#10000
b0 !
#15000
b1 !
b1000001101010000101000111101100 (
#20000
b0 !
#25000
b1 !
bx0 #
b10100101100011110011001000010000 (
#30000
b0 !
#35000
b1 !
b1000000110000000000000000000001 (
#40000
b0 !
#45000
b1 !
bx #
b1 '
b0 *
b0 )
b0 (
#50000
b0 !
#55000
b1 !
b1 *
bx )
b11111111111111111111111111111111 (
#60000
b0 !
#65000
b1 !
#70000
b0 !
#75000
b1 !
bx #
b0 *
b0 )
b0 (
#80000
b0 !
#85000
b1 !
b0 '
b1 +
#90000
b0 !
#95000
b1 !
#100000
b0 !
#105000
b1 !
#110000
b0 !
#115000
b1 !
#120000
b0 !
#125000
b1 !
#130000
b0 !
#135000
b1 !
#140000
b0 !
#145000
b1 !
#150000
b0 !
#155000
b1 !
#160000
b0 !
#165000
b1 !
#170000
b0 !
#175000
b1 !
#180000
b0 !
#185000
b1 !
#190000
b0 !
#195000
b1 !
#200000
b0 !
#205000
b1 !
#210000
b0 !
#215000
b1 !
#220000
b0 !
#225000
b1 !
#230000
b0 !
#235000
b1 !
#240000
b0 !
#245000
b1 !
#250000
b0 !
#255000
b1 !
#260000
b0 !
#265000
b1 !
#270000
b0 !
#275000
b1 !
#280000
b0 !
#285000
b1 !
#290000
b0 !
#295000
b1 !
#300000
b0 !
#305000
b1 !
#310000
b0 !
#315000
b1 !
#320000
b0 !
#325000
b1 !
b1 '
b0 +
b1 *
bx )
b1000000110000000000000000000000 (
#330000
b0 !
#335000
b1 !
b0 $
b0 '
b1 +
b0 *
b0 )
b0 (
#340000
b0 !
#345000
b1 !
#350000
b0 !
